\relax 
\citation{ConsoleLogs,JGLouMining,QFuanomaly}
\citation{Automatic}
\citation{Yuan}
\citation{IanWCRE}
\citation{log4j}
\citation{carasso2012exploring}
\citation{xpolog}
\citation{xu2013detecting}
\citation{TanSalsa}
\citation{chukwa}
\citation{IanWCRE}
\citation{shang2014exploratory,IanWCRE}
\@writefile{toc}{\contentsline {section}{\numberline {1}Introduction}{2}}
\newlabel{intro}{{1}{2}}
\@writefile{lof}{\contentsline {figure}{\numberline {1}{\ignorespaces An example of a logging statement\relax }}{2}}
\providecommand*\caption@xref[2]{\@setref\relax\@undefined{#1}}
\newlabel{fig:logexample}{{1}{2}}
\citation{kabinnaexamining}
\@writefile{lof}{\contentsline {figure}{\numberline {2}{\ignorespaces Modification of a logging statement\relax }}{4}}
\newlabel{fig:ExampleOfLogChange_LPA}{{2}{4}}
\@writefile{toc}{\contentsline {section}{\numberline {2}Experimental Setup}{4}}
\newlabel{Expsetup}{{2}{4}}
\citation{ghotra2015revisiting}
\@writefile{toc}{\contentsline {subsection}{\numberline {2.1}Studied Applications}{5}}
\newlabel{lst:grep}{{1}{5}}
\@writefile{lol}{\contentsline {lstlisting}{\numberline {1}Counting logging statements}{5}}
\@writefile{toc}{\contentsline {subsection}{\numberline {2.2}Modeling Techniques}{5}}
\@writefile{lot}{\contentsline {table}{\numberline {1}{\ignorespaces An overview of the studied applications (all metrics are calculated based on the main branch of the repository on September 2015) \relax }}{6}}
\newlabel{tba:overviewsystems}{{1}{6}}
\@writefile{lof}{\contentsline {figure}{\numberline {3}{\ignorespaces Overview of the data extraction and empirical study approach\relax }}{7}}
\newlabel{fig:LGmethod}{{3}{7}}
\@writefile{lof}{\contentsline {subfigure}{\numberline{(a)}{\ignorespaces {Overview of data extraction for preliminary analysis}}}{7}}
\@writefile{lof}{\contentsline {subfigure}{\numberline{(b)}{\ignorespaces {Overview of the model construction approach for random forest classifiers}}}{7}}
\@writefile{lof}{\contentsline {subfigure}{\numberline{(c)}{\ignorespaces {Overview of the model construction approach for survival analysis}}}{7}}
\@writefile{toc}{\contentsline {subsection}{\numberline {2.3}Data Extraction Approach}{7}}
\citation{ihaka1996r}
\citation{EMSEIAN}
\citation{kabinnamining}
\citation{kabinnamining}
\citation{levenshteinratio}
\newlabel{lst:multiplelogs}{{2}{9}}
\@writefile{lol}{\contentsline {lstlisting}{\numberline {2}Selecting the best matching logging statement}{9}}
\@writefile{lof}{\contentsline {figure}{\numberline {4}{\ignorespaces Number of commits before a just-introduced logging statement is changed in the studied applications (Cloudstack has outliers that are not shown due to their large numbers)\relax }}{10}}
\newlabel{fig:NumberofCommits}{{4}{10}}
\@writefile{lot}{\contentsline {table}{\numberline {2}{\ignorespaces Example data for survival analysis\relax }}{11}}
\newlabel{tba:ExampleCountingLogs}{{2}{11}}
\@writefile{lot}{\contentsline {table}{\numberline {3}{\ignorespaces Recurrent changes to Logging statements\relax }}{11}}
\newlabel{tba:Logmultiplechanges}{{3}{11}}
\@writefile{lof}{\contentsline {figure}{\numberline {5}{\ignorespaces Number of days before a just-introduced logging statement is changed in the studied applications \relax }}{12}}
\newlabel{fig:numberofdays}{{5}{12}}
\@writefile{toc}{\contentsline {section}{\numberline {3}Preliminary Analysis}{12}}
\newlabel{analysis}{{3}{12}}
\citation{Characterizinglogs}
\citation{zhang2009investigation}
\citation{Characterizinglogs,EMSEIAN}
\citation{Characterizinglogs}
\citation{Characterizinglogs}
\citation{Characterizinglogs}
\@writefile{lof}{\contentsline {figure}{\numberline {6}{\ignorespaces Overview of random forest classifier construction (C), analysis (A) and the flow of data in the random forest construction\relax }}{13}}
\newlabel{fig:ModelCreationLogGeanology}{{6}{13}}
\@writefile{toc}{\contentsline {section}{\numberline {4}Determining Whether a Just-Introduced Logging Statement will Change}{13}}
\newlabel{prediction}{{4}{13}}
\@writefile{toc}{\contentsline {subsection}{\numberline {4.1}Approach}{13}}
\newlabel{tba:sub1tax}{{\caption@xref {tba:sub1tax}{ on input line 47}}{14}}
\newlabel{tba:sub2tax}{{\caption@xref {tba:sub2tax}{ on input line 119}}{14}}
\newlabel{tba:sub3tax}{{\caption@xref {tba:sub3tax}{ on input line 172}}{15}}
\citation{correlationBook}
\citation{kendall1948rank}
\citation{pearsonbook}
\citation{bigliardi2014quantitatively}
\citation{Rijsbergen:1979}
\citation{F-Measure}
\@writefile{lof}{\contentsline {figure}{\numberline {7}{\ignorespaces Hierarchical clustering of variables according to Spearman’s $\rho ^{2}$ in ActiveMQ\relax }}{17}}
\newlabel{fig:SpearmanActiveMQ}{{7}{17}}
\newlabel{f:precision}{{1}{17}}
\newlabel{f:recall}{{2}{17}}
\newlabel{f:Fmeasure}{{3}{17}}
\citation{ShaneOLS}
\@writefile{lof}{\contentsline {figure}{\numberline {8}{\ignorespaces The optimism-reduced performance measures of the studied applications\relax }}{18}}
\newlabel{fig:optmisim}{{8}{18}}
\newlabel{step-boot}{{4.1}{19}}
\@writefile{toc}{\contentsline {subsection}{\numberline {4.2}Results}{19}}
\@writefile{toc}{\contentsline {section}{\numberline {5}Determining Whether a Long-Lived Logging Statement will Change}{19}}
\newlabel{cox}{{5}{19}}
\citation{elbers1982true}
\@writefile{lof}{\contentsline {figure}{\numberline {9}{\ignorespaces Overview of Cox model construction (C), validation (V) and flow of data in the Cox model\relax }}{20}}
\newlabel{fig:CodModel}{{9}{20}}
\@writefile{toc}{\contentsline {subsection}{\numberline {5.1}Approach}{20}}
\@writefile{lof}{\contentsline {figure}{\numberline {10}{\ignorespaces Hierarchical clustering of variables according to Spearman’s $\rho ^{2}$ in ActiveMQ for Cox models\relax }}{21}}
\newlabel{fig:SpearmanActiveMQCox}{{10}{21}}
\@writefile{lof}{\contentsline {figure}{\numberline {11}{\ignorespaces Scaled Schoenfeld residuals for Camel\relax }}{22}}
\newlabel{fig:Schactivemq}{{11}{22}}
\citation{MarkTSE,koru2007modeling}
\citation{MarkTSE,koru2007modeling,hosmer1999applied}
\citation{MarkTSE,koru2007modeling}
\citation{therneau1990martingale,ren2004expression,collett2015modelling}
\@writefile{lof}{\contentsline {figure}{\numberline {12}{\ignorespaces Dfbeta residuals for Camel\relax }}{24}}
\newlabel{fig:dfbetaCamel}{{12}{24}}
\citation{fisher1999time}
\@writefile{lof}{\contentsline {figure}{\numberline {13}{\ignorespaces Martingale residuals to validate the fit of Cox models for the studied applications\relax }}{25}}
\newlabel{fig:ProjectMartingale}{{13}{25}}
\@writefile{lof}{\contentsline {figure}{\numberline {14}{\ignorespaces Transformed scaled Schoenfeld residuals for file ownership and variables decalred in Camel\relax }}{26}}
\newlabel{fig:Schactivemq2}{{14}{26}}
\@writefile{toc}{\contentsline {subsection}{\numberline {5.2}Results}{26}}
\@writefile{toc}{\contentsline {section}{\numberline {6}Important Metrics from Random Forest Classifiers and Cox Models}{26}}
\newlabel{important}{{6}{26}}
\citation{strobl2008conditional}
\citation{hastie2005elements}
\citation{tantithamthavorn2015tse}
\citation{cohenUsage1}
\citation{harrell2015regression}
\citation{harrell2015regression}
\citation{hoaglin1978hat}
\citation{greenwood1996guide}
\@writefile{toc}{\contentsline {subsection}{\numberline {6.1}Important Metrics in a Random Forest Classifier}{27}}
\@writefile{toc}{\contentsline {subsection}{\numberline {6.2}{Selecting Statistically Significant Metrics in a Cox Model}}{27}}
\@writefile{toc}{\contentsline {subsection}{\numberline {6.3}Plotting the Important Metrics}{28}}
\@writefile{lof}{\contentsline {figure}{\numberline {15}{\ignorespaces Showing the probability of logging statement change against log density for random forest classifiers\relax }}{29}}
\newlabel{fig:I_plot}{{15}{29}}
\@writefile{lof}{\contentsline {figure}{\numberline {16}{\ignorespaces Showing the relative risk of using a logging statement against log density for Cox models\relax }}{29}}
\newlabel{fig:CI_plot}{{16}{29}}
\@writefile{toc}{\contentsline {subsection}{\numberline {6.4}Results}{29}}
\@writefile{lot}{\contentsline {table}{\numberline {4}{\ignorespaces Contribution of top 3 developers in introducing logging statements\relax }}{30}}
\newlabel{tba:topDevelopers}{{4}{30}}
\@writefile{lot}{\contentsline {table}{\numberline {5}{\ignorespaces The most important metrics in random forest classifier, divided into homogeneous groups by Scott-Knott Effect Size clustering\relax }}{30}}
\newlabel{tba:Scott}{{5}{30}}
\@writefile{lof}{\contentsline {figure}{\numberline {17}{\ignorespaces Comparing the probability of changes to just-introduced and long-lived logging statement against the experience of the developer who introduces that logging statement\relax }}{32}}
\newlabel{fig:Dexp_BP}{{17}{32}}
\@writefile{lot}{\contentsline {table}{\numberline {6}{\ignorespaces The most important metrics in Cox model ranked using chunk test\relax }}{32}}
\newlabel{tba:coxChunk}{{6}{32}}
\citation{Fu1}
\citation{ZhuIcse15}
\citation{Yuan}
\citation{Yuan_beconservative:}
\citation{ding2015log2}
\@writefile{lof}{\contentsline {figure}{\numberline {18}{\ignorespaces Comparing the probability of changes to just-introduced and long-lived logging statement against ownership of the file\relax }}{34}}
\newlabel{fig:Numberofchanges_BP}{{18}{34}}
\@writefile{toc}{\contentsline {section}{\numberline {7}Related Work}{34}}
\newlabel{related}{{7}{34}}
\@writefile{toc}{\contentsline {subsection}{\numberline {7.1}Log Maintenance Tools}{34}}
\citation{Characterizinglogs}
\citation{pecchia2015industry}
\citation{EMSEIAN,PaperIanCIIII}
\citation{IanGap}
\citation{IanIcesm}
\@writefile{toc}{\contentsline {subsection}{\numberline {7.2}Empirical Studies on Logging Statements and Logs}{35}}
\@writefile{toc}{\contentsline {section}{\numberline {8}Threats to Validity}{36}}
\newlabel{threats}{{8}{36}}
\@writefile{toc}{\contentsline {section}{\numberline {9}Conclusion}{36}}
\newlabel{conc}{{9}{36}}
\citation{miller2011survival}
\citation{MarkTSE}
\@writefile{toc}{\contentsline {section}{\numberline {10}Appendix A}{37}}
\newlabel{backgroundsa}{{10}{37}}
\citation{hosmer1999applied}
\@writefile{lot}{\contentsline {table}{\numberline {7}{\ignorespaces Data for survival analysis\relax }}{38}}
\newlabel{tba:ExampleCounting}{{7}{38}}
\@writefile{toc}{\contentsline {subsection}{\numberline {10.1}Survival Analysis Data and Measuring Time to Event}{38}}
\bibstyle{plainnat}
\bibdata{Logreference}
\bibcite{bigliardi2014quantitatively}{{1}{2014}{{Bigliardi et~al.}}{{Bigliardi, Lanza, Bacchelli, D'Ambros, and Mocci}}}
\bibcite{chukwa}{{2}{2008}{{Boulon et~al.}}{{Boulon, Konwinski, Qi, Rabkin, Yang, and Yang}}}
\bibcite{carasso2012exploring}{{3}{2012}{{Carasso}}{{}}}
\bibcite{correlationBook}{{4}{2013}{{Cohen et~al.}}{{Cohen, Cohen, West, and Aiken}}}
\bibcite{collett2015modelling}{{5}{2015}{{Collett}}{{}}}
\bibcite{ding2015log2}{{6}{2015}{{Ding et~al.}}{{Ding, Zhou, Lou, Zhang, Lin, Fu, Zhang, and Xie}}}
\bibcite{elbers1982true}{{7}{1982}{{Elbers and Ridder}}{{}}}
\bibcite{fisher1999time}{{8}{1999}{{Fisher and Lin}}{{}}}
\bibcite{Fu1}{{9}{}{{Fu et~al.}}{{Fu, Zhu, Hu, Ding, Lin, Zhang, and Xie}}}
\bibcite{QFuanomaly}{{10}{2009}{{Fu et~al.}}{{Fu, Lou, Wang, and Li}}}
\bibcite{ghotra2015revisiting}{{11}{2015}{{Ghotra et~al.}}{{Ghotra, McIntosh, and Hassan}}}
\bibcite{greenwood1996guide}{{12}{1996}{{Greenwood and Nikulin}}{{}}}
\bibcite{harrell2015regression}{{13}{2015}{{Harrell}}{{}}}
\bibcite{hastie2005elements}{{14}{2005}{{Hastie et~al.}}{{Hastie, Tibshirani, Friedman, and Franklin}}}
\bibcite{hoaglin1978hat}{{15}{1978}{{Hoaglin and Welsch}}{{}}}
\bibcite{hosmer1999applied}{{16}{1999}{{Hosmer~Jr and Lemeshow}}{{}}}
\bibcite{F-Measure}{{17}{2005}{{Hripcsak and Rothschild}}{{}}}
\bibcite{ihaka1996r}{{18}{1996}{{Ihaka and Gentleman}}{{}}}
\bibcite{kabinnaexamining}{{19}{2016{}}{{Kabinna et~al.}}{{Kabinna, Shang, Bezemer, and Hassan}}}
\bibcite{kabinnamining}{{20}{2016{}}{{Kabinna et~al.}}{{Kabinna, Shang, Bezemer, and Hassan}}}
\bibcite{cohenUsage1}{{21}{2007}{{Kampenes et~al.}}{{Kampenes, Dyb{\r a}, Hannay, and Sj{\o }berg}}}
\bibcite{kendall1948rank}{{22}{1948}{{Kendall}}{{}}}
\bibcite{koru2007modeling}{{23}{2007}{{Koru et~al.}}{{Koru, Zhang, and Liu}}}
\bibcite{JGLouMining}{{24}{2010}{{Lou et~al.}}{{Lou, Fu, Yang, Xu, and Li}}}
\bibcite{Automatic}{{25}{2013}{{Malik et~al.}}{{Malik, Hemmati, and Hassan}}}
\bibcite{ShaneOLS}{{26}{2015}{{McIntosh et~al.}}{{McIntosh, Kamei, Adams, and Hassan}}}
\bibcite{levenshteinratio}{{27}{2012}{{Mednis and Aurich}}{{}}}
\bibcite{miller2011survival}{{28}{2011}{{Miller~Jr}}{{}}}
\bibcite{pecchia2015industry}{{29}{2015}{{Pecchia et~al.}}{{Pecchia, Cinque, Carrozza, and Cotroneo}}}
\bibcite{ren2004expression}{{30}{2004}{{Ren et~al.}}{{Ren, Tang, Lee, Feng, Everett, Hong, Khuri, and Mao}}}
\bibcite{Rijsbergen:1979}{{31}{1979}{{Rijsbergen}}{{}}}
\bibcite{pearsonbook}{{32}{2009}{{Serfling}}{{}}}
\bibcite{IanGap}{{33}{}{{Shang}}{{}}}
\bibcite{IanWCRE}{{34}{2014{}}{{Shang et~al.}}{{Shang, Jiang, Adams, Hassan, Godfrey, Nasser, and Flora}}}
\bibcite{PaperIanCIIII}{{35}{2014{}}{{Shang et~al.}}{{Shang, Jiang, Adams, Hassan, Godfrey, Nasser, and Flora}}}
\bibcite{shang2014exploratory}{{36}{2014{}}{{Shang et~al.}}{{Shang, Jiang, Adams, Hassan, Godfrey, Nasser, and Flora}}}
\bibcite{IanIcesm}{{37}{2014{}}{{Shang et~al.}}{{Shang, Nagappan, Hassan, and Jiang}}}
\bibcite{EMSEIAN}{{38}{2015}{{Shang et~al.}}{{Shang, Nagappan, and Hassan}}}
\bibcite{strobl2008conditional}{{39}{2008}{{Strobl et~al.}}{{Strobl, Boulesteix, Kneib, Augustin, and Zeileis}}}
\bibcite{MarkTSE}{{40}{2015}{{Syer et~al.}}{{Syer, Nagappan, Adams, and Hassan}}}
\bibcite{TanSalsa}{{41}{2008}{{Tan et~al.}}{{Tan, Pan, Kavulya, Gandhi, and Narasimhan}}}
\bibcite{tantithamthavorn2015tse}{{42}{2015}{{Tantithamthavorn et~al.}}{{Tantithamthavorn, McIntosh, Hassan, and Matsumoto}}}
\bibcite{therneau1990martingale}{{43}{1990}{{Therneau et~al.}}{{Therneau, Grambsch, and Fleming}}}
\bibcite{log4j}{{44}{}{{visited March'16}}{{}}}
\bibcite{xpolog}{{45}{}{{Xpolog}}{{}}}
\bibcite{ConsoleLogs}{{46}{}{{Xu et~al.}}{{Xu, Huang, Fox, Patterson, and Jordan}}}
\bibcite{xu2013detecting}{{47}{2013}{{Xu et~al.}}{{Xu, Weber, Bass, Zhu, Wada, and Teng}}}
\bibcite{Yuan_beconservative:}{{48}{}{{Yuan et~al.}}{{Yuan, Park, Huang, Liu, Lee, Tang, Zhou, and Savage}}}
\bibcite{Yuan}{{49}{2011}{{Yuan et~al.}}{{Yuan, Zheng, Park, Zhou, and Savage}}}
\bibcite{Characterizinglogs}{{50}{2012}{{Yuan et~al.}}{{Yuan, Park, and Zhou}}}
\bibcite{zhang2009investigation}{{51}{2009}{{Zhang et~al.}}{{Zhang, El~Emam, Liu, et~al.}}}
\bibcite{ZhuIcse15}{{52}{2015}{{Zhu et~al.}}{{Zhu, He, Fu, Zhang, Lyu, and Zhang}}}
